Quick start — cellxgene-census documentation
…
# Read as Arrow Table
cell_metadata = cell_metadata$read(
   value_filter = "sex == 'female' & cell_type %in% c('microglial cell', 'neuron')",
   column_names = c("assay", "cell_type", "sex", "tissue", "tissue_general", "suspension_type", "disease")
)

# Convert to R tibble (dataframe)
cell_metadata = as.data.frame(cell_metadata)

print(cell_metadata)

The output is a tibble with about 300K cells meeting our query criteria and the selected columns.

# A tibble: 305,735 × 7
   assay     cell_type sex    tissue tissue_general suspension_type disease
   <chr>     <chr>     <chr>  <chr>  <chr>          <chr>           <chr>  
 1 10x 3' v3 neuron    female lung   lung           nucleus         normal 
 2 10x 3' v3 neuron    female lung   lung           nucleus         normal 
 3 10x 3' v3 neuron    female lung   lung           nucleus         normal 
 4 10x 3' v3 neuron    female lung   lung           nucleus         normal 
 5 10x 3' v3 neuron    female lung   lung           nucleus         normal 
 6 10x 3' v3 neuron    female lung   lung           nucleus         normal 
 7 10x 3' v3 neuron    female lung   lung           nucleus         normal 
 8 10x 3' v3 neuron    female lung   lung           nucleus         normal 
 9 10x 3' v3 neuron    female lung   lung           nucleus         normal 
10 10x 3' v3 neuron    female lung   lung           nucleus         normal 
# ℹ 305,725 more rows
# ℹ Use `print(n = ...)` to see more rows
…
