…
# Concatenates results to an Arrow Table
cell_metadata <-  cell_metadata$concat()

# Convert to R tibble (dataframe)
cell_metadata <-  as.data.frame(cell_metadata)

print(cell_metadata)

census$close()
```

The output is a `tibble` with over 300K cells meeting our query criteria and the selected columns.

```bash
# A tibble: 379,224 × 7
   assay     cell_type       sex   tissue tissue_general suspension_type disease
   <chr>     <chr>           <chr> <chr>  <chr>          <chr>           <chr>
 1 10x 3' v3 microglial cell fema… eye    eye            cell            normal
 2 10x 3' v3 microglial cell fema… eye    eye            cell            normal
 3 10x 3' v3 microglial cell fema… eye    eye            cell            normal
 4 10x 3' v3 microglial cell fema… eye    eye            cell            normal
 5 10x 3' v3 microglial cell fema… eye    eye            cell            normal
 6 10x 3' v3 microglial cell fema… eye    eye            cell            normal
 7 10x 3' v3 microglial cell fema… eye    eye            cell            normal
 8 10x 3' v3 microglial cell fema… eye    eye            cell            normal
 9 10x 3' v3 microglial cell fema… eye    eye            cell            normal
10 10x 3' v3 microglial cell fema… eye    eye            cell            normal
# ℹ 379,214 more rows
# ℹ Use `print(n = ...)` to see more rows
```
…
