Querying and fetching the single-cell data and cell/gene metadata • cellxgene.census
…
unique(as.data.frame(census$get("census_data")$get("homo_sapiens")$obs$read(column_names = "sex")$concat()))
#> # A tibble: 3 × 1
#>   sex    
#>   <chr>  
#> 1 unknown
#> 2 female 
#> 3 male

As you can see there are only three different values for sex, that is "male", "female" and "unknown".

With this information we can fetch all cell metatadata for a specific sex value, for example "unknown".

as.data.frame(census$get("census_data")$get("homo_sapiens")$obs$read(value_filter = "sex == 'unknown'")$concat())
#> # A tibble: 3,251,334 × 21
#>    soma_joinid dataset_id  assay assay_ontology_term_id cell_type cell_type_ontology_t…¹
#>          <int> <chr>       <chr> <chr>                  <chr>     <chr>                 
#>  1           0 f171db61-e… 10x … EFO:0009922            syncytio… CL:0000525            
#>  2           1 f171db61-e… 10x … EFO:0009922            placenta… CL:2000060            
#>  3           2 f171db61-e… 10x … EFO:0009922            syncytio… CL:0000525            
#>  4           3 f171db61-e… 10x … EFO:0009922            syncytio… CL:0000525            
#>  5           4 f171db61-e… 10x … EFO:0009922            extravil… CL:0008036            
#>  6           5 f171db61-e… 10x … EFO:0009922            placenta… CL:2000060            
#>  7           6 f171db61-e… 10x … EFO:0009922            syncytio… CL:0000525            
#>  8           7 f171db61-e… 10x … EFO:0009922            extravil… CL:0008036            
#>  9           8 f171db61-e… 10x … EFO:0009922            placenta… CL:2000060            
#> 10           9 f171db61-e… 10x … EFO:0009922            syncytio… CL:0000525            
#> # ℹ 3,251,324 more rows
#> # ℹ abbreviated name: ¹​cell_type_ontology_term_id
#> # ℹ 15 more variables: development_stage <chr>,
#> #   development_stage_ontology_term_id <chr>, disease <chr>,
#> #   disease_ontology_term_id <chr>, donor_id <chr>, is_primary_data <lgl>,
#> #   self_reported_ethnicity <chr>, self_reported_ethnicity_ontology_term_id <chr>,
#> #   sex <chr>, sex_ontology_term_id <chr>, suspension_type <chr>, tissue <chr>, …
…
