Genes measured in each cell (dataset presence matrix) • cellxgene.census
…
Fetching the IDs of the Census datasets

Let’s grab a table of all the datasets included in the Census and use this table in combination with the presence matrix below.

# Grab the experiment containing human data, and the measurement therein with RNA
human <- census$get("census_data")$get("homo_sapiens")
human_rna <- human$ms$get("RNA")

# The census-wide datasets
datasets_df <- as.data.frame(census$get("census_info")$get("datasets")$read()$concat())
print(datasets_df)
#> # A tibble: 593 × 8
#>    soma_joinid collection_id     collection_name collection_doi dataset_id dataset_title
#>          <int> <chr>             <chr>           <chr>          <chr>      <chr>        
#>  1           0 e2c257e7-6f79-48… Spatial multio… 10.1038/s4158… f171db61-… donor_p13_tr…
#>  2           1 e2c257e7-6f79-48… Spatial multio… 10.1038/s4158… ecf2e08e-… All donors t…
#>  3           2 e2c257e7-6f79-48… Spatial multio… 10.1038/s4158… 74cff64f-… All donors a…
#>  4           3 f7cecffa-00b4-45… Mapping single… 10.1016/j.cce… 5af90777-… Single-cell …
#>  5           4 3f50314f-bdc9-40… Single-cell se… 10.1016/j.cce… bd65a70f-… Single-cell …
#>  6           5 e5f58829-1a66-40… Tabula Sapiens  10.1126/scien… ff45e623-… Tabula Sapie…
#>  7           6 e5f58829-1a66-40… Tabula Sapiens  10.1126/scien… f01bdd17-… Tabula Sapie…
#>  8           7 e5f58829-1a66-40… Tabula Sapiens  10.1126/scien… e6a11140-… Tabula Sapie…
#>  9           8 e5f58829-1a66-40… Tabula Sapiens  10.1126/scien… e5c63d94-… Tabula Sapie…
#> 10           9 e5f58829-1a66-40… Tabula Sapiens  10.1126/scien… d8732da6-… Tabula Sapie…
#> # ℹ 583 more rows
#> # ℹ 2 more variables: dataset_h5ad_path <chr>, dataset_total_cell_count <int>
Fetching the dataset presence matrix

Now let’s fetch the dataset presence matrix.

For convenience, read the entire presence matrix (for Homo sapiens) into a sparse matrix. There is a convenience function providing this capability:

presence_matrix <- get_presence_matrix(census, "Homo sapiens", "RNA")
print(dim(presence_matrix))
#> NULL

We also need the var dataframe, which is read into an R data frame for convenient manipulation:

var_df <- as.data.frame(human_rna$var$read()$concat())
print(var_df)
#> # A tibble: 60,664 × 4
#>    soma_joinid feature_id      feature_name feature_length
#>          <int> <chr>           <chr>                 <int>
#>  1           0 ENSG00000121410 A1BG                   3999
#>  2           1 ENSG00000268895 A1BG-AS1               3374
#>  3           2 ENSG00000148584 A1CF                   9603
#>  4           3 ENSG00000175899 A2M                    6318
#>  5           4 ENSG00000245105 A2M-AS1                2948
#>  6           5 ENSG00000166535 A2ML1                  7156
#>  7           6 ENSG00000256661 A2ML1-AS1               452
#>  8           7 ENSG00000184389 A3GALT2                1023
#>  9           8 ENSG00000128274 A4GALT                 3358
#> 10           9 ENSG00000118017 A4GNT                  1779
#> # ℹ 60,654 more rows
…
Similarly, we can determine the datasets that measured a specific gene or set of genes.

# Grab the feature's soma_joinid from the var dataframe
var_joinid <- var_df$soma_joinid[var_df$feature_id == "ENSG00000286096"]

# The presence matrix is indexed by the joinids of the dataset and var dataframes,
# so slice out the feature of interest by its joinid.
presence_matrix_slice  <- presence_matrix$take(j = var_joinid)$get_one_based_matrix()
measured_datasets <- presence_matrix_slice[, , drop = TRUE] != 0
dataset_joinids <- datasets_df$soma_joinid[measured_datasets]

# From the datasets dataframe, slice out the datasets which have a joinid in the list
print(datasets_df[dataset_joinids, ])
#> # A tibble: 42 × 8
#>    soma_joinid collection_id     collection_name collection_doi dataset_id dataset_title
#>          <int> <chr>             <chr>           <chr>          <chr>      <chr>        
#>  1           4 3f50314f-bdc9-40… Single-cell se… 10.1016/j.cce… bd65a70f-… Single-cell …
#>  2           5 e5f58829-1a66-40… Tabula Sapiens  10.1126/scien… ff45e623-… Tabula Sapie…
#>  3           6 e5f58829-1a66-40… Tabula Sapiens  10.1126/scien… f01bdd17-… Tabula Sapie…
#>  4           7 e5f58829-1a66-40… Tabula Sapiens  10.1126/scien… e6a11140-… Tabula Sapie…
#>  5           8 e5f58829-1a66-40… Tabula Sapiens  10.1126/scien… e5c63d94-… Tabula Sapie…
#>  6          10 e5f58829-1a66-40… Tabula Sapiens  10.1126/scien… d77ec7d6-… Tabula Sapie…
#>  7          11 e5f58829-1a66-40… Tabula Sapiens  10.1126/scien… cee11228-… Tabula Sapie…
#>  8          13 e5f58829-1a66-40… Tabula Sapiens  10.1126/scien… a2d4d33e-… Tabula Sapie…
#>  9          14 e5f58829-1a66-40… Tabula Sapiens  10.1126/scien… a0754256-… Tabula Sapie…
#> 10          18 e5f58829-1a66-40… Tabula Sapiens  10.1126/scien… 6d41668c-… Tabula Sapie…
#> # ℹ 32 more rows
#> # ℹ 2 more variables: dataset_h5ad_path <chr>, dataset_total_cell_count <int>

Identifying all genes measured in a dataset

Finally, we can find the set of genes that were measured in the cells of a given dataset.

# Slice the dataset(s) of interest, and get the joinid(s)
dataset_joinids <- datasets_df$soma_joinid[datasets_df$collection_id == "17481d16-ee44-49e5-bcf0-28c0780d8c4a"]

# Slice the presence matrix by the first dimension, i.e., by dataset
presence_matrix_slice <- presence_matrix$take(i = dataset_joinids)$get_one_based_matrix()
genes_measured <- Matrix::colSums(presence_matrix_slice) > 0
var_joinids <- var_df$soma_joinid[genes_measured]

print(var_df[var_joinids, ])
#> # A tibble: 27,210 × 4
#>    soma_joinid feature_id      feature_name feature_length
#>          <int> <chr>           <chr>                 <int>
#>  1           0 ENSG00000121410 A1BG                   3999
#>  2           1 ENSG00000268895 A1BG-AS1               3374
#>  3           2 ENSG00000148584 A1CF                   9603
#>  4           3 ENSG00000175899 A2M                    6318
#>  5           4 ENSG00000245105 A2M-AS1                2948
#>  6           5 ENSG00000166535 A2ML1                  7156
#>  7           7 ENSG00000184389 A3GALT2                1023
#>  8           8 ENSG00000128274 A4GALT                 3358
#>  9           9 ENSG00000118017 A4GNT                  1779
#> 10          10 ENSG00000094914 AAAS                   4727
#> # ℹ 27,200 more rows
…
