Census Datasets example • cellxgene.census
…
and then an R data frame:

census_datasets <- as.data.frame(census_datasets)
print(census_datasets[, c(
  "dataset_id",
  "dataset_title",
  "dataset_total_cell_count"
)])
#> # A tibble: 593 × 3
#>    dataset_id                           dataset_title             dataset_total_cell_c…¹
#>    <chr>                                <chr>                                      <int>
#>  1 f171db61-e57e-4535-a06a-35d8b6ef8f2b donor_p13_trophoblasts                     31497
#>  2 ecf2e08e-2032-4a9e-b466-b65b395f4a02 All donors trophoblasts                    67070
#>  3 74cff64f-9da9-4b2a-9b3b-8a04a1598040 All donors all cell stat…                 286326
#>  4 5af90777-6760-4003-9dba-8f945fec6fdf Single-cell transcriptom…                 270855
#>  5 bd65a70f-b274-4133-b9dd-0d1431b6af34 Single-cell sequencing l…                 167283
#>  6 ff45e623-7f5f-46e3-b47d-56be0341f66b Tabula Sapiens - Pancreas                  13497
#>  7 f01bdd17-4902-40f5-86e3-240d66dd2587 Tabula Sapiens - Salivar…                  27199
#>  8 e6a11140-2545-46bc-929e-da243eed2cae Tabula Sapiens - Heart                     11505
#>  9 e5c63d94-593c-4338-a489-e1048599e751 Tabula Sapiens - Bladder                   24583
#> 10 d8732da6-8d1d-42d9-b625-f2416c30054b Tabula Sapiens - Trachea                    9522
#> # ℹ 583 more rows
#> # ℹ abbreviated name: ¹​dataset_total_cell_count
…
