Computing on X using online (incremental) algorithms • cellxgene.census
…
  # fold those into n_cells_grouped
  n_cells_grouped <- n_cells_part %>%
                     select(-cell_id) %>%
                     bind_rows(n_cells_grouped) %>%
                      group_by(dataset_id, gene_id) %>%
                      summarise(n_cells = sum(n_cells)) %>%
                      ungroup()
}

# add gene names for display
n_cells_grouped <- left_join(n_cells_grouped, var_df, by = "gene_id")
stopifnot(sum(is.null(n_cells_grouped$feature_name)) == 0)
n_cells_grouped[c("dataset_id", "feature_name", "n_cells")]
#> # A tibble: 21 × 3
#>    dataset_id                           feature_name n_cells
#>    <chr>                                <chr>          <dbl>
#>  1 3bbb6cf9-72b9-41be-b568-656de6eb18b5 Ptprd          79578
#>  2 3bbb6cf9-72b9-41be-b568-656de6eb18b5 Dlg2           79513
#>  3 3bbb6cf9-72b9-41be-b568-656de6eb18b5 Pcdh9          79476
#>  4 3bbb6cf9-72b9-41be-b568-656de6eb18b5 Malat1         79667
#>  5 58b01044-c5e5-4b0f-8a2d-6ebf951e01ff Ptprd            474
#>  6 58b01044-c5e5-4b0f-8a2d-6ebf951e01ff Dlg2              81
#>  7 58b01044-c5e5-4b0f-8a2d-6ebf951e01ff Pcdh9            125
#>  8 58b01044-c5e5-4b0f-8a2d-6ebf951e01ff Malat1         12622
#>  9 66ff82b4-9380-469c-bc4b-cfa08eacd325 Dlg2             856
#> 10 66ff82b4-9380-469c-bc4b-cfa08eacd325 Pcdh9           2910
#> # ℹ 11 more rows
…
