Census datasets presence • cellxgene.census
…
Goal: demonstrate basic use of the datasets_presence_matrix array.

The presence matrix is a sparse array, indicating which features (var) were present in each dataset. The array has dimensions [n_datasets, n_var], and is stored in the SOMA Measurement varp collection. The first dimension is indexed by the soma_joinid in the census_datasets dataframe. The second is indexed by the soma_joinid in the var dataframe of the measurement.

census <- cellxgene.census::open_soma()
# Grab the experiment containing human data, and the measurement therein with RNA
human <- census$get("census_data")$get("homo_sapiens")
human_rna <- human$ms$get("RNA")

# The census-wide datasets
datasets_df <- as.data.frame(census$get("census_info")$get("datasets")$read())
print(datasets_df)
#> # A tibble: 549 × 8
#>    soma_joinid collection_id           collection_name collection_doi dataset_id
#>          <int> <chr>                   <chr>           <chr>          <chr>     
#>  1           0 ced320a1-29f3-47c1-a73… Asian Immune D… ""             b0e547f0-…
#>  2           1 efd94500-1fdc-4e28-9e9… HTAN MSK - Tra… ""             d41f45c1-…
#>  3           2 1df8c90d-d299-4b2e-a54… Single-cell an… "10.1073/pnas… f801b7a9-…
#>  4           3 1df8c90d-d299-4b2e-a54… Single-cell an… "10.1073/pnas… be39785b-…
#>  5           4 1df8c90d-d299-4b2e-a54… Single-cell an… "10.1073/pnas… 4c6f9f26-…
#>  6           5 48259aa8-f168-4bf5-b79… Human breast c… "10.1101/2023… be35c935-…
#>  7           6 48259aa8-f168-4bf5-b79… Human breast c… "10.1101/2023… 975e13b6-…
#>  8           7 48259aa8-f168-4bf5-b79… Human breast c… "10.1101/2023… 24ec2dc5-…
#>  9           8 48259aa8-f168-4bf5-b79… Human breast c… "10.1101/2023… 0ba636a1-…
#> 10           9 1ca90a2d-2943-483d-b67… SEA-AD: Seattl… ""             c2876b1b-…
#> # ℹ 539 more rows
#> # ℹ 3 more variables: dataset_title <chr>, dataset_h5ad_path <chr>,
#> #   dataset_total_cell_count <int>

For convenience, read the entire presence matrix (for Homo sapiens) into a Matrix::sparseMatrix. There is a convenience API providing this capability:

presence_matrix <- cellxgene.census::get_presence_matrix(census, "Homo sapiens", "RNA")
print(dim(presence_matrix))
#> [1]   549 60664

We also need the var dataframe, which is read into an R data frame for convenient manipulation:

var_df <- as.data.frame(human_rna$var$read())
print(var_df)
#> # A tibble: 60,664 × 4
#>    soma_joinid feature_id      feature_name  feature_length
#>          <int> <chr>           <chr>                  <int>
#>  1           0 ENSG00000243485 MIR1302-2HG             1021
#>  2           1 ENSG00000237613 FAM138A                 1219
#>  3           2 ENSG00000186092 OR4F5                   2618
#>  4           3 ENSG00000238009 RP11-34P13.7            3726
#>  5           4 ENSG00000239945 RP11-34P13.8            1319
#>  6           5 ENSG00000239906 RP11-34P13.14            323
#>  7           6 ENSG00000241860 RP11-34P13.13           7559
#>  8           7 ENSG00000241599 RP11-34P13.9             457
#>  9           8 ENSG00000286448 AP006222.3               736
#> 10           9 ENSG00000236601 RP4-669L17.2            1095
#> # ℹ 60,654 more rows
…
What datasets contain a feature?

Goal: look up all datasets that have a feature_id present.

# Grab the feature's soma_joinid from the var dataframe
var_joinid <- var_df$soma_joinid[var_df$feature_id == "ENSG00000286096"]

# The presence matrix is indexed by the joinids of the dataset and var dataframes,
# so slice out the feature of interest by its joinid.
dataset_joinids <- datasets_df$soma_joinid[presence_matrix[, var_joinid + 1] != 0]

print(datasets_df[dataset_joinids + 1, ])
#> # A tibble: 24 × 8
#>    soma_joinid collection_id           collection_name collection_doi dataset_id
#>          <int> <chr>                   <chr>           <chr>          <chr>     
#>  1          92 283d65eb-dd53-496d-adb… Transcriptomic… 10.1101/2022.… fe1a73ab-…
#>  2          96 283d65eb-dd53-496d-adb… Transcriptomic… 10.1101/2022.… f8dda921-…
#>  3         113 283d65eb-dd53-496d-adb… Transcriptomic… 10.1101/2022.… dd03ce70-…
#>  4         118 283d65eb-dd53-496d-adb… Transcriptomic… 10.1101/2022.… d2b5efc1-…
#>  5         128 283d65eb-dd53-496d-adb… Transcriptomic… 10.1101/2022.… c4b03352-…
#>  6         129 283d65eb-dd53-496d-adb… Transcriptomic… 10.1101/2022.… c2aad8fc-…
#>  7         130 283d65eb-dd53-496d-adb… Transcriptomic… 10.1101/2022.… c202b243-…
#>  8         131 283d65eb-dd53-496d-adb… Transcriptomic… 10.1101/2022.… bdb26abd-…
#>  9         136 283d65eb-dd53-496d-adb… Transcriptomic… 10.1101/2022.… acae7679-…
#> 10         149 283d65eb-dd53-496d-adb… Transcriptomic… 10.1101/2022.… 9372df2d-…
#> # ℹ 14 more rows
#> # ℹ 3 more variables: dataset_title <chr>, dataset_h5ad_path <chr>,
#> #   dataset_total_cell_count <int>

What features are in a dataset?

Goal: lookup the features present in a given dataset.

This example also demonstrates the ability to do the query on multiple datasets.

# Slice the dataset(s) of interest, and get the joinid(s)
dataset_joinids <- datasets_df$soma_joinid[datasets_df$collection_id == "17481d16-ee44-49e5-bcf0-28c0780d8c4a"]

# Slice the presence matrix by the first dimension, i.e., by dataset
var_joinids <- var_df$soma_joinid[which(Matrix::colSums(presence_matrix[dataset_joinids + 1, ]) > 0)]

print(var_df[var_joinids + 1, ])
#> # A tibble: 27,211 × 4
#>    soma_joinid feature_id      feature_name  feature_length
#>          <int> <chr>           <chr>                  <int>
#>  1           3 ENSG00000238009 RP11-34P13.7            3726
#>  2           4 ENSG00000239945 RP11-34P13.8            1319
#>  3          13 ENSG00000229905 RP11-206L10.4            456
#>  4          14 ENSG00000237491 LINC01409               8413
#>  5          15 ENSG00000177757 FAM87B                  1947
#>  6          17 ENSG00000225880 LINC00115               1317
#>  7          18 ENSG00000230368 FAM41C                  1971
#>  8          19 ENSG00000272438 RP11-54O7.16             351
#>  9          20 ENSG00000230699 RP11-54O7.1             3043
#> 10          21 ENSG00000241180 RP11-54O7.2              443
#> # ℹ 27,201 more rows
…
