Census Datasets example • cellxgene.census
…
and then an R data frame:

census_datasets <- as.data.frame(census_datasets)
print(census_datasets[, c(
  "dataset_id",
  "dataset_title",
  "dataset_total_cell_count"
)], n = 5)
#> # A tibble: 549 × 3
#>   dataset_id                           dataset_title      dataset_total_cell_c…¹
#>   <chr>                                <chr>                               <int>
#> 1 b0e547f0-462b-4f81-b31b-5b0a5d96f537 AIDA Phase 1: Chi…                1058909
#> 2 d41f45c1-1b7b-4573-a998-ac5c5acb1647 Transcriptional c…                  82991
#> 3 f801b7a9-80a6-4d09-9161-71474deb58ae normal - Single-c…                   6044
#> 4 be39785b-67cb-4177-be19-a40ee3747e45 ccRCC - Single-ce…                  20509
#> 5 4c6f9f26-5470-455b-8933-c408232fbf56 chRCC - Single-ce…                   2576
#> # ℹ 544 more rows
#> # ℹ abbreviated name: ¹​dataset_total_cell_count
…
